Get Started with R
…
--

**Data** for today
.pull-left[

```r
gapminder
```

```
## # A tibble: 1,704 x 6
##   country continent  year lifeExp    pop gdpPercap
##   <fct>   <fct>     <int>   <dbl>  <int>     <dbl>
## 1 Afghan… Asia       1952    28.8 8.43e6      779.
## 2 Afghan… Asia       1957    30.3 9.24e6      821.
## 3 Afghan… Asia       1962    32.0 1.03e7      853.
## 4 Afghan… Asia       1967    34.0 1.15e7      836.
## 5 Afghan… Asia       1972    36.1 1.31e7      740.
## 6 Afghan… Asia       1977    38.4 1.49e7      786.
## # … with 1,698 more rows
```
…
